<svg width="20" height="16" viewBox="0 0 20 16" fill="none" xmlns="http://www.w3.org/2000/svg">
<path fill-rule="evenodd" clip-rule="evenodd" d="M20 1.86999C19.2492 2.19863 18.4539 2.4143 17.64 2.50999C18.495 2.01216 19.1387 1.21912 19.45 0.279993C18.643 0.758994 17.7604 1.09716 16.84 1.27999C16.453 0.874149 15.9875 0.551358 15.4717 0.331295C14.9559 0.111232 14.4008 -0.00149221 13.84 -6.88267e-06C12.7674 -0.00807135 11.735 0.407605 10.9672 1.15665C10.1995 1.90569 9.75842 2.92753 9.74 3.99999C9.736 4.32999 9.773 4.65999 9.85 4.97999C8.22093 4.89829 6.62689 4.47715 5.17005 3.74356C3.7132 3.00997 2.42568 1.98012 1.39 0.719993C1.03023 1.32561 0.837031 2.01561 0.83 2.71999C0.824906 3.39343 0.989971 4.05725 1.30988 4.64988C1.6298 5.2425 2.09419 5.74474 2.66 6.10999C2.00934 6.09172 1.37213 5.92043 0.8 5.60999V5.65999C0.796814 6.6055 1.12373 7.52248 1.72436 8.25272C2.32498 8.98296 3.16164 9.48068 4.09 9.65999C3.48635 9.82151 2.85413 9.84544 2.24 9.72999C2.50772 10.538 3.02029 11.2426 3.70659 11.7462C4.39289 12.2497 5.21889 12.5271 6.07 12.54C4.61063 13.6421 2.82873 14.2326 1 14.22C0.665782 14.2195 0.331879 14.1995 0 14.16C1.88185 15.3504 4.06323 15.9816 6.29 15.98C12.641 16.096 17.882 11.042 17.998 4.69199L18 4.48999V3.97999C18.7859 3.40017 19.463 2.68582 20 1.86999Z" fill="#00aced"/>
</svg>
